DSC_1883.JPG
DSC_1884.JPG
DSC_1885.JPG
DSC_1886.JPG
DSC_1887.JPG
DSC_1888.JPG
DSC_1889.JPG
DSC_1890.JPG
DSC_1891.JPG
DSC_1892.JPG
DSC_1893.JPG
DSC_1894.JPG
DSC_1895.JPG
DSC_1896.JPG
DSC_1898.JPG
DSC_1900.JPG
DSC_1901.JPG
DSC_1902.JPG
DSC_1903.JPG
DSC_1904.JPG
DSC_1905.JPG
DSC_1906.JPG
DSC_1907.JPG
DSC_1908.JPG
DSC_1909.JPG
DSC_1910.JPG
DSC_1912.JPG
DSC_1913.JPG
DSC_1914.JPG
DSC_1915.JPG
DSC_1916.JPG
DSC_1917.JPG
DSC_1918.JPG
DSC_1919.JPG
DSC_1920.JPG
DSC_1921.JPG
DSC_1922.JPG
DSC_1923.JPG
DSC_1924.JPG
DSC_1925.JPG
DSC_1926.JPG
DSC_1927.JPG
DSC_1928.JPG
DSC_1930.JPG
DSC_1931.JPG
DSC_1932.JPG
DSC_1933.JPG
DSC_1934.JPG
DSC_1935.JPG
DSC_1936.JPG
DSC_1937.JPG
DSC_1938.JPG
DSC_1939.JPG
DSC_1940.JPG
DSC_1941.JPG
DSC_1942.JPG
DSC_1943.JPG
DSC_1944.JPG
DSC_1945.JPG
DSC_1946.JPG
DSC_1947.JPG
DSC_1948.JPG
DSC_1949.JPG
DSC_1950.JPG
DSC_1951.JPG
DSC_1952.JPG
DSC_1953.JPG
DSC_1954.JPG
DSC_1955.JPG
DSC_1956.JPG
DSC_1957.JPG
DSC_1958.JPG
DSC_1959.JPG
DSC_1960.JPG
DSC_1961.JPG
DSC_1962.JPG
DSC_1963.JPG
DSC_1964.JPG
DSC_1965.JPG
DSC_1966.JPG
DSC_1967.JPG
DSC_1968.JPG
DSC_1970.JPG
DSC_1972.JPG
DSC_1973.JPG
DSC_1974.JPG
DSC_1975.JPG
DSC_1976.JPG
DSC_1977.JPG
DSC_1979.JPG
DSC_1980.JPG
DSC_1981.JPG
DSC_1982.JPG
DSC_1985.JPG
DSC_1986.JPG
DSC_1987.JPG
DSC_1988.JPG
DSC_1989.JPG
DSC_1990.JPG
DSC_1991.JPG
DSC_1992.JPG
DSC_1993.JPG
DSC_1994.JPG
DSC_1995.JPG
DSC_1996.JPG
DSC_1997.JPG
DSC_1998.JPG
DSC_1999.JPG
DSC_2000.JPG
DSC_2001.JPG
DSC_2002.JPG
DSC_2003.JPG
DSC_2004.JPG
DSC_2005.JPG
DSC_2006.JPG
DSC_2007.JPG
DSC_2008.JPG
DSC_2009.JPG
DSC_2010.JPG
DSC_2011.JPG
DSC_2012.JPG
DSC_2013.JPG
DSC_2014.JPG
DSC_2015.JPG
DSC_2016.JPG
DSC_2017.JPG
DSC_2018.JPG
DSC_2019.JPG
DSC_2020.JPG
DSC_2021.JPG
DSC_2022.JPG
DSC_2023.JPG
DSC_2024.JPG
DSC_2025.JPG
DSC_2026.JPG
DSC_2027.JPG
DSC_2028.JPG
DSC_2029.JPG
DSC_2030.JPG
DSC_2031.JPG
DSC_2032.JPG
DSC_2034.JPG
DSC_2035.JPG
DSC_2036.JPG
DSC_2037.JPG
DSC_2038.JPG
DSC_2039.JPG
DSC_2040.JPG
DSC_2041.JPG
DSC_2042.JPG
DSC_2043.JPG
DSC_2044.JPG
DSC_2045.JPG
DSC_2046.JPG
DSC_2047.JPG
DSC_2049.JPG
DSC_2050.JPG
DSC_2051.JPG
DSC_2052.JPG
DSC_2053.JPG
DSC_2054.JPG
DSC_2059.JPG
DSC_2060.JPG
DSC_2062.JPG
DSC_2063.JPG
DSC_2064.JPG
DSC_2065.JPG
DSC_2066.JPG
DSC_2067.JPG
DSC_2068.JPG
DSC_2069.JPG
DSC_2070.JPG
DSC_2071.JPG
DSC_2072.JPG
DSC_2073.JPG
DSC_2074.JPG
DSC_2076.JPG
DSC_2077.JPG
DSC_2078.JPG
DSC_2079.JPG
DSC_2080.JPG
DSC_2081.JPG
DSC_2082.JPG
DSC_2083.JPG
DSC_2084.JPG
DSC_2085.JPG
DSC_2088.JPG
DSC_2089.JPG
DSC_2090.JPG
DSC_2091.JPG
DSC_2092.JPG
DSC_2093.JPG
DSC_2094.JPG
DSC_2095.JPG
DSC_2096.JPG
DSC_2097.JPG
DSC_2098.JPG
DSC_2099.JPG
DSC_2100.JPG
